{
	"category" : "Katie",
	"classinstvars" : [
		 ],
	"classvars" : [
		 ],
	"commentStamp" : "",
	"instvars" : [
		 ],
	"name" : "Tree",
	"pools" : [
		 ],
	"super" : "SpriteSheetMorph",
	"type" : "normal" }
