DENZI部屋のドット絵フリー素材は、クリエイティブ・コモンズ・ライセンスに基づいて公開しています。
----------------------------------------------------------------------------
The file 'denzi-rpg-16x16.png' is Creative Commons licensed by DENZI.
Original home: http://www3.wind.ne.jp/DENZI/diary/
Special thanks to DENZI!
