{
	"category" : "Katie",
	"classinstvars" : [
		 ],
	"classvars" : [
		 ],
	"commentStamp" : "",
	"instvars" : [
		 ],
	"name" : "GiantSnake",
	"pools" : [
		 ],
	"super" : "Enemy",
	"type" : "normal" }
