{
	"class" : {
		 },
	"instance" : {
		"cache" : "dto 12/23/2021 14:16",
		"cache:" : "dto 12/23/2021 14:16",
		"cachedCellAt:withColor:" : "dto 12/23/2021 14:25",
		"cachedCellAtX:Y:withColor:" : "dto 12/23/2021 14:33",
		"cellAt:" : "dto 12/21/2021 14:16",
		"cellAt:withColor:" : "dto 12/21/2021 16:14",
		"cellAtX:Y:" : "dto 12/24/2021 11:48",
		"cellAtX:Y:withColor:" : "dto 12/21/2021 14:12",
		"cellHeight" : "dto 12/21/2021 10:52",
		"cellHeight:" : "dto 12/21/2021 10:53",
		"cellWidth" : "dto 12/21/2021 10:52",
		"cellWidth:" : "dto 12/21/2021 10:53",
		"defaultColor" : "dto 12/21/2021 13:57",
		"defaultColor:" : "dto 12/21/2021 13:57",
		"defaultScale" : "dto 12/21/2021 14:05",
		"defaultScale:" : "dto 12/21/2021 14:05",
		"form" : "dto 12/21/2021 10:54",
		"form:" : "dto 12/21/2021 10:54",
		"initialize" : "dto 12/23/2021 14:20",
		"initializeCache" : "dto 12/23/2021 14:20",
		"initializePositions" : "dto 12/22/2021 11:37",
		"positions" : "dto 12/22/2021 11:40" } }
