{
	"class" : {
		 },
	"instance" : {
		"initialize" : "dto 12/31/2021 18:58",
		"isLit" : "dto 12/22/2021 18:17",
		"refuel" : "dto 12/23/2021 14:40",
		"step" : "dto 12/22/2021 18:20",
		"stepTime" : "dto 12/22/2021 18:02" } }
