{
	"category" : "Katie",
	"classinstvars" : [
		 ],
	"classvars" : [
		"MySpriteSheet" ],
	"commentStamp" : "dto 12/24/2021 10:48",
	"instvars" : [
		"player1",
		"player2" ],
	"name" : "Adventure",
	"pools" : [
		 ],
	"super" : "Object",
	"type" : "normal" }
