{
	"class" : {
		"newGrid:" : "dto 12/24/2021 12:12" },
	"instance" : {
		"allocateCells:" : "dto 12/24/2021 12:21",
		"at:" : "dto 12/24/2021 15:39",
		"at:add:" : "dto 12/24/2021 15:45",
		"at:put:" : "dto 12/24/2021 15:39",
		"cellHeight" : "dto 12/25/2021 17:10",
		"cellWidth" : "dto 12/25/2021 17:10",
		"cells" : "dto 12/24/2021 15:47",
		"exportBuffer" : "dto 1/1/2022 18:43",
		"height" : "dto 12/24/2021 15:47",
		"initialize" : "dto 12/25/2021 17:10",
		"width" : "dto 12/24/2021 15:48" } }
