{
	"category" : "Katie",
	"classinstvars" : [
		 ],
	"classvars" : [
		 ],
	"commentStamp" : "",
	"instvars" : [
		"cells",
		"cellWidth",
		"cellHeight",
		"height",
		"width" ],
	"name" : "GameGrid",
	"pools" : [
		 ],
	"super" : "Morph",
	"type" : "normal" }
